[gd_scene load_steps=4 format=2]

[ext_resource path="res://Scripts/Cloud.gd" type="Script" id=1]
[ext_resource path="res://Scenes/Levels/Entities/Lightning.tscn" type="PackedScene" id=2]
[ext_resource path="res://GFX/Enemies/cloud.png" type="Texture" id=3]

[node name="Cloud" type="Node2D"]

position = Vector2( 471.626, 258.369 )
script = ExtResource( 1 )
__meta__ = {
"_edit_group_": true
}
left_limit = 500
right_limit = 500
walk_speed = 100
idle_time = 1.0
lightning_scene = ExtResource( 2 )

[node name="Sprite" type="Sprite" parent="." index="0"]

texture = ExtResource( 3 )
_sections_unfolded = [ "Animation", "Offset", "Region" ]

[node name="RayCast2D" type="RayCast2D" parent="Sprite" index="0"]

enabled = true
exclude_parent = true
cast_to = Vector2( 0, 1000 )
collision_mask = 1

[node name="Timer" type="Timer" parent="Sprite" index="1"]

process_mode = 1
wait_time = 2.0
one_shot = true
autostart = false

[connection signal="timeout" from="Sprite/Timer" to="." method="_on_Timer_timeout"]


