[gd_scene load_steps=5 format=2]

[ext_resource path="res://addons/my_custom_dock/Asset_icon.gd" type="Script" id=1]
[ext_resource path="res://addons/my_custom_dock/grid_button_group.tres" type="ButtonGroup" id=2]
[ext_resource path="res://icon.png" type="Texture" id=3]
[ext_resource path="res://addons/my_custom_dock/TextureButton.gd" type="Script" id=4]

[node name="AssetRef" type="Control" index="0"]

anchor_left = 0.0
anchor_top = 0.0
anchor_right = 0.0
anchor_bottom = 0.0
margin_right = 64.0
margin_bottom = 85.0
rect_min_size = Vector2( 64, 85 )
rect_pivot_offset = Vector2( 0, 0 )
rect_clip_content = false
mouse_filter = 0
mouse_default_cursor_shape = 0
size_flags_horizontal = 1
size_flags_vertical = 1
script = ExtResource( 1 )
_sections_unfolded = [ "Rect", "Visibility" ]

[node name="VBoxContainer" type="VBoxContainer" parent="." index="0"]

anchor_left = 0.0
anchor_top = 0.0
anchor_right = 0.0
anchor_bottom = 0.0
margin_right = 64.0
margin_bottom = 93.0
rect_min_size = Vector2( 64, 85 )
rect_pivot_offset = Vector2( 0, 0 )
rect_clip_content = false
mouse_filter = 1
mouse_default_cursor_shape = 0
size_flags_horizontal = 1
size_flags_vertical = 1
alignment = 0
_sections_unfolded = [ "Rect", "Visibility" ]

[node name="TextureButton" type="TextureButton" parent="VBoxContainer" index="0"]

anchor_left = 0.0
anchor_top = 0.0
anchor_right = 0.0
anchor_bottom = 0.0
margin_right = 64.0
margin_bottom = 64.0
rect_min_size = Vector2( 64, 64 )
rect_pivot_offset = Vector2( 0, 0 )
rect_clip_content = false
focus_mode = 2
mouse_filter = 0
mouse_default_cursor_shape = 0
size_flags_horizontal = 1
size_flags_vertical = 1
toggle_mode = true
enabled_focus_mode = 2
shortcut = null
group = ExtResource( 2 )
texture_normal = ExtResource( 3 )
expand = true
stretch_mode = 5
script = ExtResource( 4 )
_sections_unfolded = [ "Textures", "Visibility" ]

[node name="Label" type="RichTextLabel" parent="VBoxContainer" index="1"]

anchor_left = 0.0
anchor_top = 0.0
anchor_right = 0.0
anchor_bottom = 0.0
margin_top = 68.0
margin_right = 64.0
margin_bottom = 93.0
rect_min_size = Vector2( 64, 25 )
rect_pivot_offset = Vector2( 0, 0 )
rect_clip_content = true
mouse_filter = 0
mouse_default_cursor_shape = 0
size_flags_horizontal = 1
size_flags_vertical = 1
bbcode_enabled = false
bbcode_text = ""
visible_characters = -1
percent_visible = 1.0
meta_underlined = false
tab_size = 4
text = "SpikesTop.tscn"
scroll_active = false
scroll_following = false
selection_enabled = false
override_selected_font_color = false
_sections_unfolded = [ "Rect" ]

[connection signal="pressed" from="VBoxContainer/TextureButton" to="." method="_on_TextureButton_pressed"]

[connection signal="toggled" from="VBoxContainer/TextureButton" to="." method="_on_TextureButton_toggled"]


