[gd_scene load_steps=4 format=2]

[ext_resource path="res://Scenes/Levels/base/Level_base.tscn" type="PackedScene" id=1]
[ext_resource path="res://Scenes/Levels/Entities/Coin.tscn" type="PackedScene" id=2]
[ext_resource path="res://Scenes/Levels/Entities/Instructions.tscn" type="PackedScene" id=3]

[node name="Level1" index="0" instance=ExtResource( 1 )]

[node name="Player" parent="." index="0"]

position = Vector2( 340.97, -169.79 )

[node name="Map" parent="." index="1"]

tile_data = PoolIntArray( 983040, 0, 0, 983048, 0, 0, 983056, 0, 0, 983064, 0, 0 )

[node name="StartPosition" parent="." index="2"]

position = Vector2( 117.006, 841.16 )

[node name="Portal" parent="Map_elements" index="0"]

position = Vector2( 1857.64, 837.214 )

[node name="Coin" parent="Map_elements/Coins" index="0" instance=ExtResource( 2 )]

position = Vector2( 684.326, 901.938 )

[node name="Coin2" parent="Map_elements/Coins" index="1" instance=ExtResource( 2 )]

position = Vector2( 1234.57, 905.733 )

[node name="Instructions" parent="Instructions" index="0" instance=ExtResource( 3 )]

margin_left = 171.0
margin_top = 468.0
margin_right = 1072.0
margin_bottom = 805.0
text = "Could you help the poor bunny to reach the portal?"


