[gd_scene load_steps=2 format=2]

[ext_resource path="res://GFX/HUD/bannerHanging.png" type="Texture" id=1]

[node name="Banner9Patch" type="NinePatchRect"]

anchor_left = 0.0
anchor_top = 0.0
anchor_right = 0.0
anchor_bottom = 0.0
margin_right = 157.0
margin_bottom = 84.0
rect_pivot_offset = Vector2( 0, 0 )
rect_clip_content = false
mouse_filter = 2
mouse_default_cursor_shape = 0
size_flags_horizontal = 1
size_flags_vertical = 1
texture = ExtResource( 1 )
patch_margin_left = 12
patch_margin_top = 17
patch_margin_right = 12
patch_margin_bottom = 17
_sections_unfolded = [ "Patch Margin", "Rect" ]


